[DEBUG|2018-07-24 17:50:30,374] chat_channels.consumers > 1-1-1-dfdf
[DEBUG|2018-07-24 17:50:42,412] chat_channels.consumers > 1-1-1-ahora qué hijo de puta
[DEBUG|2018-07-24 17:50:58,926] chat_channels.consumers > 1-1-1-alkjsdflkajsldkfjalksdfj akjdsfl akjsdfl akfldj aklsdfj aklsf klajsfl kajsfl ajkfl ajkflj askfldj alksdf aklsf klasjf klasjfl kasjdfl akdsjfñlkadsjflkldskfj ldsfj 
[DEBUG|2018-07-24 17:52:08,966] chat_channels.consumers > 1-1-1-3
[DEBUG|2018-07-24 17:52:10,990] chat_channels.consumers > 1-1-1-d
[DEBUG|2018-07-24 18:28:34,555] chat_channels.consumers > 1-1-1-jasdfja
[DEBUG|2018-07-24 18:28:35,034] chat_channels.consumers > 1-1-1-jdfja
[DEBUG|2018-07-24 18:28:35,231] chat_channels.consumers > 1-1-1-jdfa
[DEBUG|2018-07-24 18:28:35,449] chat_channels.consumers > 1-1-1-jdf
[DEBUG|2018-07-24 18:28:35,970] chat_channels.consumers > 1-1-1-jadfjad
[DEBUG|2018-07-24 18:28:36,158] chat_channels.consumers > 1-1-1-fja
[DEBUG|2018-07-24 18:28:36,424] chat_channels.consumers > 1-1-1-jdfa
[DEBUG|2018-07-24 18:28:36,628] chat_channels.consumers > 1-1-1-jdsf
[DEBUG|2018-07-24 18:28:37,097] chat_channels.consumers > 1-1-1-ajdfjads
[DEBUG|2018-07-24 18:28:37,521] chat_channels.consumers > 1-1-1-fjadfja
[DEBUG|2018-07-24 18:28:37,759] chat_channels.consumers > 1-1-1-jdsfa
[DEBUG|2018-07-24 18:28:37,972] chat_channels.consumers > 1-1-1-jsfd
[DEBUG|2018-07-24 18:28:38,194] chat_channels.consumers > 1-1-1-ajd
[DEBUG|2018-07-24 18:28:38,395] chat_channels.consumers > 1-1-1-fja
[DEBUG|2018-07-24 18:28:38,625] chat_channels.consumers > 1-1-1-dfja
[DEBUG|2018-07-24 18:28:38,868] chat_channels.consumers > 1-1-1-jdf
[DEBUG|2018-07-24 18:28:39,094] chat_channels.consumers > 1-1-1-ajdsf
[DEBUG|2018-07-24 18:28:39,323] chat_channels.consumers > 1-1-1-jad
[DEBUG|2018-07-24 18:28:39,548] chat_channels.consumers > 1-1-1-fja
[DEBUG|2018-07-24 18:28:39,780] chat_channels.consumers > 1-1-1-dsjfa
[DEBUG|2018-07-24 18:28:40,000] chat_channels.consumers > 1-1-1-jsdf
[DEBUG|2018-07-24 18:28:40,246] chat_channels.consumers > 1-1-1-ajdf
[DEBUG|2018-07-24 18:28:40,524] chat_channels.consumers > 1-1-1-ajdsf
[DEBUG|2018-07-24 18:28:40,715] chat_channels.consumers > 1-1-1-ja
[DEBUG|2018-07-24 18:28:40,946] chat_channels.consumers > 1-1-1-dsfja
[DEBUG|2018-07-24 18:28:41,183] chat_channels.consumers > 1-1-1-dsjfa
[DEBUG|2018-07-24 18:28:41,425] chat_channels.consumers > 1-1-1-jdfa
[DEBUG|2018-07-24 18:28:41,647] chat_channels.consumers > 1-1-1-sjdfa
[DEBUG|2018-07-24 18:28:45,007] chat_channels.consumers > 1-1-1-jdsf
[DEBUG|2018-07-24 18:28:45,373] chat_channels.consumers > 1-1-1-jas
[DEBUG|2018-07-24 18:28:45,606] chat_channels.consumers > 1-1-1-djfa
[DEBUG|2018-07-24 18:28:45,790] chat_channels.consumers > 1-1-1-jdf
[DEBUG|2018-07-24 18:28:46,021] chat_channels.consumers > 1-1-1-jadf
[DEBUG|2018-07-24 18:28:46,170] chat_channels.consumers > 1-1-1-ja
[DEBUG|2018-07-24 18:28:46,399] chat_channels.consumers > 1-1-1-djfa
[DEBUG|2018-07-24 18:28:46,627] chat_channels.consumers > 1-1-1-jdf
[DEBUG|2018-07-24 18:28:46,849] chat_channels.consumers > 1-1-1-ajdf
[DEBUG|2018-07-24 18:28:47,079] chat_channels.consumers > 1-1-1-jad
[DEBUG|2018-07-24 18:28:47,266] chat_channels.consumers > 1-1-1-fja
[DEBUG|2018-07-24 18:28:47,496] chat_channels.consumers > 1-1-1-dfja
[DEBUG|2018-07-24 18:28:47,718] chat_channels.consumers > 1-1-1-jdf
[DEBUG|2018-07-24 18:28:47,947] chat_channels.consumers > 1-1-1-ajfd
[DEBUG|2018-07-24 18:28:48,182] chat_channels.consumers > 1-1-1-ajfd
[DEBUG|2018-07-24 18:28:48,438] chat_channels.consumers > 1-1-1-ajdfa
[DEBUG|2018-07-24 18:28:48,673] chat_channels.consumers > 1-1-1-jdf
[DEBUG|2018-07-24 18:28:48,899] chat_channels.consumers > 1-1-1-ajdf
[DEBUG|2018-07-24 18:28:49,137] chat_channels.consumers > 1-1-1-ajdf
[DEBUG|2018-07-24 18:28:49,367] chat_channels.consumers > 1-1-1-ajdsf
[DEBUG|2018-07-24 18:28:50,941] chat_channels.consumers > 1-1-1-asjdf
[DEBUG|2018-07-24 18:29:06,565] chat_channels.consumers > 20-2-1-lkajdsf
[DEBUG|2018-07-24 18:29:06,828] chat_channels.consumers > 20-2-1-jads
[DEBUG|2018-07-24 18:29:07,028] chat_channels.consumers > 20-2-1-fja
[DEBUG|2018-07-24 18:29:07,255] chat_channels.consumers > 20-2-1-jdf
[DEBUG|2018-07-24 18:29:07,497] chat_channels.consumers > 20-2-1-ajdf
[DEBUG|2018-07-24 18:29:07,764] chat_channels.consumers > 20-2-1-ajd
[DEBUG|2018-07-24 18:29:07,943] chat_channels.consumers > 20-2-1-jfa
[DEBUG|2018-07-24 18:29:08,184] chat_channels.consumers > 20-2-1-jdsf
[DEBUG|2018-07-24 18:29:08,456] chat_channels.consumers > 20-2-1-ajdsf
[DEBUG|2018-07-24 18:29:08,677] chat_channels.consumers > 20-2-1-jads
[DEBUG|2018-07-24 18:29:08,905] chat_channels.consumers > 20-2-1-fja
[DEBUG|2018-07-24 18:29:09,172] chat_channels.consumers > 20-2-1-jdfa
[DEBUG|2018-07-24 18:29:09,433] chat_channels.consumers > 20-2-1-jdfa
[DEBUG|2018-07-24 18:29:09,664] chat_channels.consumers > 20-2-1-jdf
[DEBUG|2018-07-24 18:29:09,896] chat_channels.consumers > 20-2-1-ajd
[DEBUG|2018-07-24 18:29:10,134] chat_channels.consumers > 20-2-1-jfads
[DEBUG|2018-07-24 18:29:10,357] chat_channels.consumers > 20-2-1-fja
[DEBUG|2018-07-24 18:29:10,599] chat_channels.consumers > 20-2-1-jdsf
[DEBUG|2018-07-24 18:29:10,834] chat_channels.consumers > 20-2-1-ajdf
[DEBUG|2018-07-24 18:29:11,090] chat_channels.consumers > 20-2-1-ajdf
[DEBUG|2018-07-24 18:29:11,322] chat_channels.consumers > 20-2-1-ajd
[DEBUG|2018-07-24 18:29:11,581] chat_channels.consumers > 20-2-1-fjad
[DEBUG|2018-07-24 18:29:11,807] chat_channels.consumers > 20-2-1-fja
[DEBUG|2018-07-24 18:29:11,997] chat_channels.consumers > 20-2-1-djfa
[DEBUG|2018-07-24 18:29:12,257] chat_channels.consumers > 20-2-1-jdfa
[DEBUG|2018-07-24 18:29:12,505] chat_channels.consumers > 20-2-1-jdf
[DEBUG|2018-07-24 18:29:12,728] chat_channels.consumers > 20-2-1-ajdf
[DEBUG|2018-07-24 18:29:12,998] chat_channels.consumers > 20-2-1-ajdf
[DEBUG|2018-07-24 18:29:13,234] chat_channels.consumers > 20-2-1-ajdf
[DEBUG|2018-07-24 18:29:13,494] chat_channels.consumers > 20-2-1-ajd
[DEBUG|2018-07-24 18:29:13,759] chat_channels.consumers > 20-2-1-fjads
[DEBUG|2018-07-24 18:29:13,992] chat_channels.consumers > 20-2-1-fjas
[DEBUG|2018-07-24 18:29:14,235] chat_channels.consumers > 20-2-1-dfja
[DEBUG|2018-07-24 18:29:14,464] chat_channels.consumers > 20-2-1-dsfj
[DEBUG|2018-07-24 18:29:14,735] chat_channels.consumers > 20-2-1-ajdsfa
[DEBUG|2018-07-24 18:29:14,973] chat_channels.consumers > 20-2-1-jdsf
[DEBUG|2018-07-24 18:29:15,197] chat_channels.consumers > 20-2-1-ajdf
[DEBUG|2018-07-24 18:29:15,462] chat_channels.consumers > 20-2-1-ajdf
[DEBUG|2018-07-24 18:29:15,681] chat_channels.consumers > 20-2-1-ajd
[DEBUG|2018-07-24 18:29:15,910] chat_channels.consumers > 20-2-1-fjad
[DEBUG|2018-07-24 18:29:16,140] chat_channels.consumers > 20-2-1-fja
[DEBUG|2018-07-24 18:29:16,405] chat_channels.consumers > 20-2-1-djfa
[DEBUG|2018-07-24 18:29:16,629] chat_channels.consumers > 20-2-1-jdf
[DEBUG|2018-07-24 18:29:16,890] chat_channels.consumers > 20-2-1-ajdf
[DEBUG|2018-07-24 18:29:17,120] chat_channels.consumers > 20-2-1-ajdf
[DEBUG|2018-07-24 18:29:17,350] chat_channels.consumers > 20-2-1-ajdf
[DEBUG|2018-07-24 18:29:22,728] chat_channels.consumers > 23-2-1-ajds
[DEBUG|2018-07-24 18:29:22,885] chat_channels.consumers > 23-2-1-fja
[DEBUG|2018-07-24 18:29:23,114] chat_channels.consumers > 23-2-1-djfa
[DEBUG|2018-07-24 18:29:23,302] chat_channels.consumers > 23-2-1-jdf
[DEBUG|2018-07-24 18:29:23,523] chat_channels.consumers > 23-2-1-jad
[DEBUG|2018-07-24 18:29:23,729] chat_channels.consumers > 23-2-1-fja
[DEBUG|2018-07-24 18:29:23,936] chat_channels.consumers > 23-2-1-dsfja
[DEBUG|2018-07-24 18:29:24,168] chat_channels.consumers > 23-2-1-sjdf
[DEBUG|2018-07-24 18:30:08,316] chat_channels.consumers > 23-2-1-dasdf
[DEBUG|2018-07-24 18:30:08,568] chat_channels.consumers > 23-2-1-a
[DEBUG|2018-07-24 18:30:08,768] chat_channels.consumers > 23-2-1-dsf
[DEBUG|2018-07-24 18:30:08,992] chat_channels.consumers > 23-2-1-asdf
[DEBUG|2018-07-24 18:30:09,224] chat_channels.consumers > 23-2-1-asd
[DEBUG|2018-07-24 18:30:09,446] chat_channels.consumers > 23-2-1-fasd
[DEBUG|2018-07-24 18:30:09,675] chat_channels.consumers > 23-2-1-fads
[DEBUG|2018-07-24 18:30:09,906] chat_channels.consumers > 23-2-1-f
[DEBUG|2018-07-24 18:30:10,125] chat_channels.consumers > 23-2-1-adsf
[DEBUG|2018-07-24 18:30:10,356] chat_channels.consumers > 23-2-1-adsf
[DEBUG|2018-07-24 18:30:10,577] chat_channels.consumers > 23-2-1-ads
[DEBUG|2018-07-24 18:30:10,804] chat_channels.consumers > 23-2-1-fas
[DEBUG|2018-07-24 18:30:11,067] chat_channels.consumers > 23-2-1-dfas
[DEBUG|2018-07-24 18:30:11,299] chat_channels.consumers > 23-2-1-dfa
[DEBUG|2018-07-24 18:30:11,526] chat_channels.consumers > 23-2-1-sdf
[DEBUG|2018-07-24 18:30:11,800] chat_channels.consumers > 23-2-1-asdf
[DEBUG|2018-07-24 18:30:12,040] chat_channels.consumers > 23-2-1-adsf
[DEBUG|2018-07-24 18:30:12,228] chat_channels.consumers > 23-2-1-asd
[DEBUG|2018-07-24 18:30:12,458] chat_channels.consumers > 23-2-1-fas
[DEBUG|2018-07-24 18:30:12,713] chat_channels.consumers > 23-2-1-dfas
[DEBUG|2018-07-24 18:30:12,977] chat_channels.consumers > 23-2-1-dfads
[DEBUG|2018-07-24 18:30:13,194] chat_channels.consumers > 23-2-1-f
[DEBUG|2018-07-24 18:30:13,402] chat_channels.consumers > 23-2-1-asdf
[DEBUG|2018-07-24 18:32:10,737] chat_channels.consumers > 1-1-1-asd
[DEBUG|2018-07-24 18:32:11,074] chat_channels.consumers > 1-1-1-adsf
[DEBUG|2018-07-24 18:32:11,362] chat_channels.consumers > 1-1-1-ads
[DEBUG|2018-07-24 18:32:11,624] chat_channels.consumers > 1-1-1-f
[DEBUG|2018-07-24 18:32:11,857] chat_channels.consumers > 1-1-1-adf
[DEBUG|2018-07-24 18:32:12,110] chat_channels.consumers > 1-1-1-ads
[DEBUG|2018-07-24 18:32:12,338] chat_channels.consumers > 1-1-1-f
[DEBUG|2018-07-24 18:32:12,573] chat_channels.consumers > 1-1-1-adsf
[DEBUG|2018-07-24 18:32:12,790] chat_channels.consumers > 1-1-1-ads
[DEBUG|2018-07-24 18:32:13,018] chat_channels.consumers > 1-1-1-fa
[DEBUG|2018-07-24 18:32:13,241] chat_channels.consumers > 1-1-1-df
[DEBUG|2018-07-24 18:32:13,462] chat_channels.consumers > 1-1-1-ad
[DEBUG|2018-07-24 18:32:13,675] chat_channels.consumers > 1-1-1-fa
[DEBUG|2018-07-24 18:32:13,901] chat_channels.consumers > 1-1-1-df
[DEBUG|2018-07-24 18:32:14,124] chat_channels.consumers > 1-1-1-ad
[DEBUG|2018-07-24 18:32:14,391] chat_channels.consumers > 1-1-1-fad
[DEBUG|2018-07-24 18:32:14,610] chat_channels.consumers > 1-1-1-fa
[DEBUG|2018-07-24 18:32:14,875] chat_channels.consumers > 1-1-1-dsf
[DEBUG|2018-07-24 18:32:15,102] chat_channels.consumers > 1-1-1-adf
[DEBUG|2018-07-24 18:32:15,332] chat_channels.consumers > 1-1-1-ads
[DEBUG|2018-07-24 18:32:15,550] chat_channels.consumers > 1-1-1-fa
[DEBUG|2018-07-24 18:32:15,825] chat_channels.consumers > 1-1-1-dfa
[DEBUG|2018-07-24 18:32:16,091] chat_channels.consumers > 1-1-1-df
[DEBUG|2018-07-24 18:32:16,313] chat_channels.consumers > 1-1-1-adf
[DEBUG|2018-07-24 18:32:16,598] chat_channels.consumers > 1-1-1-ad
[DEBUG|2018-07-24 18:32:16,861] chat_channels.consumers > 1-1-1-fad
[DEBUG|2018-07-24 18:32:17,092] chat_channels.consumers > 1-1-1-fa
[DEBUG|2018-07-24 18:32:17,388] chat_channels.consumers > 1-1-1-df
[DEBUG|2018-07-24 18:32:17,617] chat_channels.consumers > 1-1-1-adf
[DEBUG|2018-07-24 18:32:17,925] chat_channels.consumers > 1-1-1-adf
[DEBUG|2018-07-24 18:32:18,181] chat_channels.consumers > 1-1-1-ad
[DEBUG|2018-07-24 18:32:18,443] chat_channels.consumers > 1-1-1-fad
[DEBUG|2018-07-24 18:32:18,666] chat_channels.consumers > 1-1-1-fa
[DEBUG|2018-07-24 18:32:18,929] chat_channels.consumers > 1-1-1-df
[DEBUG|2018-07-24 18:32:19,194] chat_channels.consumers > 1-1-1-adf
[DEBUG|2018-07-24 18:32:22,397] chat_channels.consumers > 1-1-1-df
[DEBUG|2018-07-24 18:32:22,725] chat_channels.consumers > 1-1-1-df
[DEBUG|2018-07-24 18:32:23,025] chat_channels.consumers > 1-1-1-adf
[DEBUG|2018-07-24 18:32:23,317] chat_channels.consumers > 1-1-1-ad
[DEBUG|2018-07-24 18:32:23,693] chat_channels.consumers > 1-1-1-fad
[DEBUG|2018-07-24 18:32:23,991] chat_channels.consumers > 1-1-1-fad
[DEBUG|2018-07-24 18:32:24,315] chat_channels.consumers > 1-1-1-fa
[DEBUG|2018-07-24 18:32:24,614] chat_channels.consumers > 1-1-1-dfa
[DEBUG|2018-07-24 18:32:24,904] chat_channels.consumers > 1-1-1-df
[DEBUG|2018-07-24 18:32:25,200] chat_channels.consumers > 1-1-1-ad
[DEBUG|2018-07-24 18:32:25,508] chat_channels.consumers > 1-1-1-fads
[DEBUG|2018-07-24 18:32:25,816] chat_channels.consumers > 1-1-1-fasd
[DEBUG|2018-07-24 18:32:29,180] chat_channels.consumers > 16-2-1-dfa
[DEBUG|2018-07-24 18:32:29,523] chat_channels.consumers > 16-2-1-dafs
[DEBUG|2018-07-24 18:32:29,765] chat_channels.consumers > 16-2-1-ads
[DEBUG|2018-07-24 18:32:29,987] chat_channels.consumers > 16-2-1-df
[DEBUG|2018-07-24 18:32:30,208] chat_channels.consumers > 16-2-1-ads
[DEBUG|2018-07-24 18:32:30,439] chat_channels.consumers > 16-2-1-fads
[DEBUG|2018-07-24 18:32:30,626] chat_channels.consumers > 16-2-1-fa
[DEBUG|2018-07-24 18:32:30,872] chat_channels.consumers > 16-2-1-dsf
[DEBUG|2018-07-24 18:32:31,093] chat_channels.consumers > 16-2-1-ad
[DEBUG|2018-07-24 18:32:31,357] chat_channels.consumers > 16-2-1-fa
[DEBUG|2018-07-24 18:32:31,597] chat_channels.consumers > 16-2-1-df
[DEBUG|2018-07-24 18:32:31,831] chat_channels.consumers > 16-2-1-ad
[DEBUG|2018-07-24 18:32:32,053] chat_channels.consumers > 16-2-1-fa
[DEBUG|2018-07-24 18:32:32,264] chat_channels.consumers > 16-2-1-dsf
[DEBUG|2018-07-24 18:32:32,530] chat_channels.consumers > 16-2-1-ads
[DEBUG|2018-07-24 18:32:32,752] chat_channels.consumers > 16-2-1-f
[DEBUG|2018-07-24 18:32:32,975] chat_channels.consumers > 16-2-1-adf
[DEBUG|2018-07-24 18:32:33,234] chat_channels.consumers > 16-2-1-ad
[DEBUG|2018-07-24 18:32:33,467] chat_channels.consumers > 16-2-1-fa
[DEBUG|2018-07-24 18:32:33,737] chat_channels.consumers > 16-2-1-dfa
[DEBUG|2018-07-24 18:32:33,970] chat_channels.consumers > 16-2-1-df
[DEBUG|2018-07-24 18:32:34,232] chat_channels.consumers > 16-2-1-adf
[DEBUG|2018-07-24 18:32:34,464] chat_channels.consumers > 16-2-1-ad
[DEBUG|2018-07-24 18:32:34,722] chat_channels.consumers > 16-2-1-f
[DEBUG|2018-07-24 18:32:34,909] chat_channels.consumers > 16-2-1-ad
[DEBUG|2018-07-24 18:32:35,141] chat_channels.consumers > 16-2-1-sfa
[DEBUG|2018-07-24 18:32:35,363] chat_channels.consumers > 16-2-1-dsf
[DEBUG|2018-07-24 18:32:35,619] chat_channels.consumers > 16-2-1-ad
[DEBUG|2018-07-24 18:32:35,850] chat_channels.consumers > 16-2-1-fa
[DEBUG|2018-07-24 18:32:36,069] chat_channels.consumers > 16-2-1-df
[DEBUG|2018-07-24 18:32:36,333] chat_channels.consumers > 16-2-1-adsf
[DEBUG|2018-07-24 18:32:36,545] chat_channels.consumers > 16-2-1-a
[DEBUG|2018-07-24 18:32:36,774] chat_channels.consumers > 16-2-1-dsf
[DEBUG|2018-07-24 18:32:37,017] chat_channels.consumers > 16-2-1-ads
[DEBUG|2018-07-24 18:32:37,238] chat_channels.consumers > 16-2-1-fa
[DEBUG|2018-07-24 18:32:37,475] chat_channels.consumers > 16-2-1-df
[DEBUG|2018-07-24 18:32:37,689] chat_channels.consumers > 16-2-1-ads
[DEBUG|2018-07-24 18:32:37,931] chat_channels.consumers > 16-2-1-fa
[DEBUG|2018-07-24 18:32:38,160] chat_channels.consumers > 16-2-1-sdf
[DEBUG|2018-07-24 18:32:38,426] chat_channels.consumers > 16-2-1-adsf
[DEBUG|2018-07-24 18:32:38,689] chat_channels.consumers > 16-2-1-asd
[DEBUG|2018-07-24 18:32:38,947] chat_channels.consumers > 16-2-1-fad
[DEBUG|2018-07-24 18:32:39,165] chat_channels.consumers > 16-2-1-f
[DEBUG|2018-07-24 18:32:39,398] chat_channels.consumers > 16-2-1-adsf
[DEBUG|2018-07-24 18:32:39,660] chat_channels.consumers > 16-2-1-asdf
[DEBUG|2018-07-24 18:32:39,923] chat_channels.consumers > 16-2-1-ads
[DEBUG|2018-07-24 18:32:40,136] chat_channels.consumers > 16-2-1-f
[DEBUG|2018-07-24 18:32:40,399] chat_channels.consumers > 16-2-1-asdf
[DEBUG|2018-07-24 18:32:40,618] chat_channels.consumers > 16-2-1-asd
[DEBUG|2018-07-24 18:32:40,891] chat_channels.consumers > 16-2-1-fasd
[DEBUG|2018-07-24 18:32:41,157] chat_channels.consumers > 16-2-1-fa
[DEBUG|2018-07-24 18:32:41,375] chat_channels.consumers > 16-2-1-dsf
[DEBUG|2018-07-24 18:32:41,651] chat_channels.consumers > 16-2-1-adsf
[DEBUG|2018-07-24 18:32:41,886] chat_channels.consumers > 16-2-1-ads
[DEBUG|2018-07-24 18:32:42,193] chat_channels.consumers > 16-2-1-fasd
[DEBUG|2018-07-24 18:32:42,460] chat_channels.consumers > 16-2-1-f
